%YAML 1.1
%TAG !u! tag:unity3d.com,2011:
--- !u!1 &7494636210844313013
GameObject:
  m_ObjectHideFlags: 0
  m_CorrespondingSourceObject: {fileID: 0}
  m_PrefabInstance: {fileID: 0}
  m_PrefabAsset: {fileID: 0}
  serializedVersion: 6
  m_Component:
  - component: {fileID: 7494636210844313012}
  - component: {fileID: 7494636210844313019}
  m_Layer: 0
  m_Name: SoundManager
  m_TagString: Untagged
  m_Icon: {fileID: 0}
  m_NavMeshLayer: 0
  m_StaticEditorFlags: 0
  m_IsActive: 1
--- !u!4 &7494636210844313012
Transform:
  m_ObjectHideFlags: 0
  m_CorrespondingSourceObject: {fileID: 0}
  m_PrefabInstance: {fileID: 0}
  m_PrefabAsset: {fileID: 0}
  m_GameObject: {fileID: 7494636210844313013}
  m_LocalRotation: {x: 0, y: 0, z: 0, w: 1}
  m_LocalPosition: {x: -1.6721418, y: 3.6264224, z: -8.96858}
  m_LocalScale: {x: 1, y: 1, z: 1}
  m_Children: []
  m_Father: {fileID: 0}
  m_RootOrder: 0
  m_LocalEulerAnglesHint: {x: 0, y: 0, z: 0}
--- !u!114 &7494636210844313019
MonoBehaviour:
  m_ObjectHideFlags: 0
  m_CorrespondingSourceObject: {fileID: 0}
  m_PrefabInstance: {fileID: 0}
  m_PrefabAsset: {fileID: 0}
  m_GameObject: {fileID: 7494636210844313013}
  m_Enabled: 1
  m_EditorHideFlags: 0
  m_Script: {fileID: 11500000, guid: e9b78e8fec6ba4e4d9b72047a995a1f0, type: 3}
  m_Name: 
  m_EditorClassIdentifier: 
  AudioSource: {fileID: 884122040582241784, guid: aceabdc5246dccf4087c51fa2c25133f,
    type: 3}
  ambiant1: Ambiant
  ambiantVolume: 0.2
  isAmbiantEnabled: 0
  music1:
  - MusicAscensionGate
  - MusicSonicSavior
  - MusicWorldOfHurt
  musicVolume: 0.2
  isMusicEnabled: 1
  tileAppear1:
  - TileAppear1
  - TileAppear2
  - TileAppear3
  tileAppearVolume: 0.05
  isTileAppearEnabled: 0
  tileDisappear1:
  - TileDisappearV21
  - TileDisappearV22
  - TileDisappearV23
  - TileDisappearV24
  - TileDisappearV25
  - TileDisappearV26
  - TileDisappearV27
  tileDisappearVolume: 0.05
  isTileDisappearEnabled: 1
  doorUnlocked1: Door
  doorUnlockedVolume: 0.3
  isDoorUnlockedEnabled: 1
  skelettonKilled1:
  - MonsterKill1
  - MonsterKill2
  - MonsterKill3
  skelettonKilledVolume: 0.3
  isSkelettonKilledEnabled: 1
  potionPicked1:
  - PickUp1
  - PickUp2
  potionPickedVolume: 0.7
  isPotionPickedEnabled: 1
  piecePicked1: PickUpPiece
  piecePickedVolume: 0.15
  isPiecePickedEnabled: 1
  endGameGate1: GateEndLevel
  endGameGateVolume: 0.15
  isEndGameGateEnabled: 1
  screamFall1: ScreamFall
  screamFallVolume: 0.4
  isScreamFallEnabled: 1
  uiClick1: UiClick
  uiClickVolume: 0.2
  isUiClickEnabled: 1
  uiClick11: UiClick2
  uiClick11Volume: 0.2
  isUiClick11Enabled: 1
  musiqueMenu1: musiqueMenu
  musiqueMenuVolume: 0.2
  isMusiqueMenuEnabled: 1
  marchandHello1: MarchandHello
  marchandHelloVolume: 0.3
  isMarchandHello1Enabled: 1
  marchandGoodBye1: MarchandGoodbye
  marchandGoodByeVolume: 0.3
  isMarchandGoodByeEnabled: 1
  actualMusic: {fileID: 0}
